\relax 
\providecommand\hyper@newdestlabel[2]{}
\providecommand\HyperFirstAtBeginDocument{\AtBeginDocument}
\HyperFirstAtBeginDocument{\ifx\hyper@anchor\@undefined
\global\let\oldcontentsline\contentsline
\gdef\contentsline#1#2#3#4{\oldcontentsline{#1}{#2}{#3}}
\global\let\oldnewlabel\newlabel
\gdef\newlabel#1#2{\newlabelxx{#1}#2}
\gdef\newlabelxx#1#2#3#4#5#6{\oldnewlabel{#1}{{#2}{#3}}}
\AtEndDocument{\ifx\hyper@anchor\@undefined
\let\contentsline\oldcontentsline
\let\newlabel\oldnewlabel
\fi}
\fi}
\global\let\hyper@last\relax 
\gdef\HyperFirstAtBeginDocument#1{#1}
\providecommand\HyField@AuxAddToFields[1]{}
\providecommand\HyField@AuxAddToCoFields[2]{}
\providecommand \oddpage@label [2]{}
\@writefile{toc}{\contentsline {chapter}{\numberline {1}Class Index}{1}{chapter.1}}
\@writefile{lof}{\addvspace {10\p@ }}
\@writefile{lot}{\addvspace {10\p@ }}
\@writefile{toc}{\contentsline {section}{\numberline {1.1}Class List}{1}{section.1.1}}
\@writefile{toc}{\contentsline {chapter}{\numberline {2}File Index}{3}{chapter.2}}
\@writefile{lof}{\addvspace {10\p@ }}
\@writefile{lot}{\addvspace {10\p@ }}
\@writefile{toc}{\contentsline {section}{\numberline {2.1}File List}{3}{section.2.1}}
\@writefile{toc}{\contentsline {chapter}{\numberline {3}Class Documentation}{5}{chapter.3}}
\@writefile{lof}{\addvspace {10\p@ }}
\@writefile{lot}{\addvspace {10\p@ }}
\@writefile{toc}{\contentsline {section}{\numberline {3.1}vector3 Struct Reference}{5}{section.3.1}}
\newlabel{structvector3}{{3.1}{5}{vector3 Struct Reference}{section.3.1}{}}
\@writefile{toc}{\contentsline {subsection}{\numberline {3.1.1}Detailed Description}{5}{subsection.3.1.1}}
\@writefile{toc}{\contentsline {subsection}{\numberline {3.1.2}Constructor \& Destructor Documentation}{5}{subsection.3.1.2}}
\newlabel{structvector3_a70c6a501a4b46f491a57dddd2dc294ca}{{3.1.2}{5}{Constructor \& Destructor Documentation}{subsection.3.1.2}{}}
\@writefile{toc}{\contentsline {subsubsection}{\numberline {3.1.2.1}vector3()\hspace  {0.1cm}{\relax \fontsize  {8}{9.5}\selectfont  \abovedisplayskip 6\p@ plus2\p@ minus4\p@ \abovedisplayshortskip \z@ plus\p@ \belowdisplayshortskip 3\p@ plus\p@ minus2\p@ \def \leftmargin \leftmargini \parsep 4\p@ plus2\p@ minus\p@ \topsep 8\p@ plus2\p@ minus4\p@ \itemsep 4\p@ plus2\p@ minus\p@ {\leftmargin \leftmargini \topsep 3\p@ plus\p@ minus\p@ \parsep 2\p@ plus\p@ minus\p@ \itemsep \parsep }\belowdisplayskip \abovedisplayskip \ttfamily  [1/2]}}{5}{subsubsection.3.1.2.1}}
\newlabel{structvector3_a2598193ad0511c994817d79dd544bfc9}{{3.1.2.1}{5}{\texorpdfstring {vector3()}{vector3()}\hspace {0.1cm}{\footnotesize \ttfamily [1/2]}}{subsubsection.3.1.2.1}{}}
\@writefile{toc}{\contentsline {subsubsection}{\numberline {3.1.2.2}vector3()\hspace  {0.1cm}{\relax \fontsize  {8}{9.5}\selectfont  \abovedisplayskip 6\p@ plus2\p@ minus4\p@ \abovedisplayshortskip \z@ plus\p@ \belowdisplayshortskip 3\p@ plus\p@ minus2\p@ \def \leftmargin \leftmargini \parsep 4\p@ plus2\p@ minus\p@ \topsep 8\p@ plus2\p@ minus4\p@ \itemsep 4\p@ plus2\p@ minus\p@ {\leftmargin \leftmargini \topsep 3\p@ plus\p@ minus\p@ \parsep 2\p@ plus\p@ minus\p@ \itemsep \parsep }\belowdisplayskip \abovedisplayskip \ttfamily  [2/2]}}{6}{subsubsection.3.1.2.2}}
\@writefile{toc}{\contentsline {subsection}{\numberline {3.1.3}Member Data Documentation}{6}{subsection.3.1.3}}
\newlabel{structvector3_a5733a71ccc09ea8871aa77529ac6cebf}{{3.1.3}{6}{Member Data Documentation}{subsection.3.1.3}{}}
\@writefile{toc}{\contentsline {subsubsection}{\numberline {3.1.3.1}x}{6}{subsubsection.3.1.3.1}}
\newlabel{structvector3_a171804a5be6de072de21e6b26bb3dc88}{{3.1.3.1}{6}{\texorpdfstring {x}{x}}{subsubsection.3.1.3.1}{}}
\@writefile{toc}{\contentsline {subsubsection}{\numberline {3.1.3.2}y}{6}{subsubsection.3.1.3.2}}
\newlabel{structvector3_a1b2ed8f4aa9ed5c395fe4ff8412c9190}{{3.1.3.2}{6}{\texorpdfstring {y}{y}}{subsubsection.3.1.3.2}{}}
\@writefile{toc}{\contentsline {subsubsection}{\numberline {3.1.3.3}z}{6}{subsubsection.3.1.3.3}}
\@writefile{toc}{\contentsline {chapter}{\numberline {4}File Documentation}{7}{chapter.4}}
\@writefile{lof}{\addvspace {10\p@ }}
\@writefile{lot}{\addvspace {10\p@ }}
\@writefile{toc}{\contentsline {section}{\numberline {4.1}functions.\discretionary {\unhbox \voidb@x \hbox {\relax \fontsize  {7}{8}\selectfont  $\leftarrow \joinrel  \rhook $}}{}{}cpp File Reference}{7}{section.4.1}}
\newlabel{functions_8cpp}{{4.1}{7}{functions.\+cpp File Reference}{section.4.1}{}}
\gdef \LT@i {\LT@entry 
    {3}{24.79999pt}\LT@entry 
    {1}{21.08719pt}\LT@entry 
    {3}{68.82872pt}}
\@writefile{toc}{\contentsline {subsection}{\numberline {4.1.1}Detailed Description}{8}{subsection.4.1.1}}
\@writefile{toc}{\contentsline {subsection}{\numberline {4.1.2}Function Documentation}{8}{subsection.4.1.2}}
\newlabel{functions_8cpp_a1c49c30ecfe276163152d65c227040b7}{{4.1.2}{8}{Function Documentation}{subsection.4.1.2}{}}
\@writefile{toc}{\contentsline {subsubsection}{\numberline {4.1.2.1}add3()}{8}{subsubsection.4.1.2.1}}
\newlabel{functions_8cpp_a6e9680f62f0f72c55493d6f867af6327}{{4.1.2.1}{8}{\texorpdfstring {add3()}{add3()}}{table.4.1}{}}
\@writefile{toc}{\contentsline {subsubsection}{\numberline {4.1.2.2}dot\discretionary {\unhbox \voidb@x \hbox {\relax \fontsize  {7}{8}\selectfont  $\leftarrow \joinrel  \rhook $}}{}{}\_\discretionary {\unhbox \voidb@x \hbox {\relax \fontsize  {7}{8}\selectfont  $\leftarrow \joinrel  \rhook $}}{}{}product()}{8}{subsubsection.4.1.2.2}}
\gdef \LT@ii {\LT@entry 
    {3}{24.79999pt}\LT@entry 
    {1}{21.08719pt}\LT@entry 
    {3}{68.82872pt}}
\gdef \LT@iii {\LT@entry 
    {3}{24.79999pt}\LT@entry 
    {1}{21.08719pt}\LT@entry 
    {3}{68.82872pt}}
\gdef \LT@iv {\LT@entry 
    {3}{62.64102pt}\LT@entry 
    {3}{258.4635pt}}
\newlabel{functions_8cpp_a0aabb7f6398303fac7d3d2851a6c2d1a}{{4.1.2.2}{9}{\texorpdfstring {dot\+\_\+product()}{dot\_product()}}{table.4.2}{}}
\@writefile{toc}{\contentsline {subsubsection}{\numberline {4.1.2.3}dot\discretionary {\unhbox \voidb@x \hbox {\relax \fontsize  {7}{8}\selectfont  $\leftarrow \joinrel  \rhook $}}{}{}\_\discretionary {\unhbox \voidb@x \hbox {\relax \fontsize  {7}{8}\selectfont  $\leftarrow \joinrel  \rhook $}}{}{}product2()}{9}{subsubsection.4.1.2.3}}
\newlabel{functions_8cpp_a7dd4232d1de74cf2310fbf879a3a7fd9}{{4.1.2.3}{9}{\texorpdfstring {dot\+\_\+product2()}{dot\_product2()}}{table.4.3}{}}
\@writefile{toc}{\contentsline {subsubsection}{\numberline {4.1.2.4}min\discretionary {\unhbox \voidb@x \hbox {\relax \fontsize  {7}{8}\selectfont  $\leftarrow \joinrel  \rhook $}}{}{}Dist2segments\discretionary {\unhbox \voidb@x \hbox {\relax \fontsize  {7}{8}\selectfont  $\leftarrow \joinrel  \rhook $}}{}{}\_\discretionary {\unhbox \voidb@x \hbox {\relax \fontsize  {7}{8}\selectfont  $\leftarrow \joinrel  \rhook $}}{}{}\discretionary {\unhbox \voidb@x \hbox {\relax \fontsize  {7}{8}\selectfont  $\leftarrow \joinrel  \rhook $}}{}{}K\discretionary {\unhbox \voidb@x \hbox {\relax \fontsize  {7}{8}\selectfont  $\leftarrow \joinrel  \rhook $}}{}{}K\discretionary {\unhbox \voidb@x \hbox {\relax \fontsize  {7}{8}\selectfont  $\leftarrow \joinrel  \rhook $}}{}{}T()}{9}{subsubsection.4.1.2.4}}
\gdef \LT@v {\LT@entry 
    {3}{24.79999pt}\LT@entry 
    {1}{21.08719pt}\LT@entry 
    {3}{68.82872pt}}
\newlabel{functions_8cpp_ab1d24a807a07e64ff78a717be3fe0a1e}{{4.1.2.4}{10}{\texorpdfstring {min\+Dist2segments\+\_\+\+K\+K\+T()}{minDist2segments\_KKT()}}{table.4.4}{}}
\@writefile{toc}{\contentsline {subsubsection}{\numberline {4.1.2.5}mult3()}{10}{subsubsection.4.1.2.5}}
\newlabel{functions_8cpp_a419013c05b344ce37fd241fef28e30ec}{{4.1.2.5}{10}{\texorpdfstring {mult3()}{mult3()}}{table.4.5}{}}
\@writefile{toc}{\contentsline {subsubsection}{\numberline {4.1.2.6}normalize3()}{10}{subsubsection.4.1.2.6}}
\gdef \LT@vi {\LT@entry 
    {3}{24.79999pt}\LT@entry 
    {1}{21.08719pt}\LT@entry 
    {3}{68.82872pt}}
\gdef \LT@vii {\LT@entry 
    {3}{24.79999pt}\LT@entry 
    {1}{21.08719pt}\LT@entry 
    {3}{68.82872pt}}
\newlabel{functions_8cpp_ae75c1612e7100cc4a52b3ab150af2642}{{4.1.2.6}{12}{\texorpdfstring {normalize3()}{normalize3()}}{table.4.6}{}}
\@writefile{toc}{\contentsline {subsubsection}{\numberline {4.1.2.7}sub3()}{12}{subsubsection.4.1.2.7}}
\@writefile{toc}{\contentsline {section}{\numberline {4.2}functions.\discretionary {\unhbox \voidb@x \hbox {\relax \fontsize  {7}{8}\selectfont  $\leftarrow \joinrel  \rhook $}}{}{}h File Reference}{12}{section.4.2}}
\newlabel{functions_8h}{{4.2}{12}{functions.\+h File Reference}{section.4.2}{}}
\@writefile{toc}{\contentsline {subsection}{\numberline {4.2.1}Detailed Description}{13}{subsection.4.2.1}}
\gdef \LT@viii {\LT@entry 
    {3}{24.79999pt}\LT@entry 
    {1}{21.08719pt}\LT@entry 
    {3}{68.82872pt}}
\gdef \LT@ix {\LT@entry 
    {3}{24.79999pt}\LT@entry 
    {1}{21.08719pt}\LT@entry 
    {3}{68.82872pt}}
\gdef \LT@x {\LT@entry 
    {3}{24.79999pt}\LT@entry 
    {1}{21.08719pt}\LT@entry 
    {3}{68.82872pt}}
\@writefile{toc}{\contentsline {subsection}{\numberline {4.2.2}Function Documentation}{14}{subsection.4.2.2}}
\newlabel{functions_8h_a1c49c30ecfe276163152d65c227040b7}{{4.2.2}{14}{Function Documentation}{subsection.4.2.2}{}}
\@writefile{toc}{\contentsline {subsubsection}{\numberline {4.2.2.1}add3()}{14}{subsubsection.4.2.2.1}}
\newlabel{functions_8h_a6e9680f62f0f72c55493d6f867af6327}{{4.2.2.1}{14}{\texorpdfstring {add3()}{add3()}}{table.4.8}{}}
\@writefile{toc}{\contentsline {subsubsection}{\numberline {4.2.2.2}dot\discretionary {\unhbox \voidb@x \hbox {\relax \fontsize  {7}{8}\selectfont  $\leftarrow \joinrel  \rhook $}}{}{}\_\discretionary {\unhbox \voidb@x \hbox {\relax \fontsize  {7}{8}\selectfont  $\leftarrow \joinrel  \rhook $}}{}{}product()}{14}{subsubsection.4.2.2.2}}
\newlabel{functions_8h_a0aabb7f6398303fac7d3d2851a6c2d1a}{{4.2.2.2}{14}{\texorpdfstring {dot\+\_\+product()}{dot\_product()}}{table.4.9}{}}
\@writefile{toc}{\contentsline {subsubsection}{\numberline {4.2.2.3}dot\discretionary {\unhbox \voidb@x \hbox {\relax \fontsize  {7}{8}\selectfont  $\leftarrow \joinrel  \rhook $}}{}{}\_\discretionary {\unhbox \voidb@x \hbox {\relax \fontsize  {7}{8}\selectfont  $\leftarrow \joinrel  \rhook $}}{}{}product2()}{14}{subsubsection.4.2.2.3}}
\newlabel{functions_8h_a39ee782251fe8f9918431f62529d2435}{{4.2.2.3}{14}{\texorpdfstring {dot\+\_\+product2()}{dot\_product2()}}{table.4.10}{}}
\gdef \LT@xi {\LT@entry 
    {3}{62.64102pt}\LT@entry 
    {3}{258.4635pt}}
\@writefile{toc}{\contentsline {subsubsection}{\numberline {4.2.2.4}min\discretionary {\unhbox \voidb@x \hbox {\relax \fontsize  {7}{8}\selectfont  $\leftarrow \joinrel  \rhook $}}{}{}Dist2segments\discretionary {\unhbox \voidb@x \hbox {\relax \fontsize  {7}{8}\selectfont  $\leftarrow \joinrel  \rhook $}}{}{}\_\discretionary {\unhbox \voidb@x \hbox {\relax \fontsize  {7}{8}\selectfont  $\leftarrow \joinrel  \rhook $}}{}{}\discretionary {\unhbox \voidb@x \hbox {\relax \fontsize  {7}{8}\selectfont  $\leftarrow \joinrel  \rhook $}}{}{}K\discretionary {\unhbox \voidb@x \hbox {\relax \fontsize  {7}{8}\selectfont  $\leftarrow \joinrel  \rhook $}}{}{}K\discretionary {\unhbox \voidb@x \hbox {\relax \fontsize  {7}{8}\selectfont  $\leftarrow \joinrel  \rhook $}}{}{}T()}{15}{subsubsection.4.2.2.4}}
\newlabel{functions_8h_ab1d24a807a07e64ff78a717be3fe0a1e}{{4.2.2.4}{15}{\texorpdfstring {min\+Dist2segments\+\_\+\+K\+K\+T()}{minDist2segments\_KKT()}}{table.4.11}{}}
\gdef \LT@xii {\LT@entry 
    {3}{24.79999pt}\LT@entry 
    {1}{21.08719pt}\LT@entry 
    {3}{68.82872pt}}
\gdef \LT@xiii {\LT@entry 
    {3}{24.79999pt}\LT@entry 
    {1}{21.08719pt}\LT@entry 
    {3}{68.82872pt}}
\gdef \LT@xiv {\LT@entry 
    {3}{24.79999pt}\LT@entry 
    {1}{21.08719pt}\LT@entry 
    {3}{68.82872pt}}
\@writefile{toc}{\contentsline {subsubsection}{\numberline {4.2.2.5}mult3()}{16}{subsubsection.4.2.2.5}}
\newlabel{functions_8h_a419013c05b344ce37fd241fef28e30ec}{{4.2.2.5}{16}{\texorpdfstring {mult3()}{mult3()}}{table.4.12}{}}
\@writefile{toc}{\contentsline {subsubsection}{\numberline {4.2.2.6}normalize3()}{16}{subsubsection.4.2.2.6}}
\newlabel{functions_8h_ae75c1612e7100cc4a52b3ab150af2642}{{4.2.2.6}{16}{\texorpdfstring {normalize3()}{normalize3()}}{table.4.13}{}}
\@writefile{toc}{\contentsline {subsubsection}{\numberline {4.2.2.7}sub3()}{16}{subsubsection.4.2.2.7}}
\@writefile{toc}{\contentsline {section}{\numberline {4.3}min\discretionary {\unhbox \voidb@x \hbox {\relax \fontsize  {7}{8}\selectfont  $\leftarrow \joinrel  \rhook $}}{}{}Dist2segments\discretionary {\unhbox \voidb@x \hbox {\relax \fontsize  {7}{8}\selectfont  $\leftarrow \joinrel  \rhook $}}{}{}\_\discretionary {\unhbox \voidb@x \hbox {\relax \fontsize  {7}{8}\selectfont  $\leftarrow \joinrel  \rhook $}}{}{}\discretionary {\unhbox \voidb@x \hbox {\relax \fontsize  {7}{8}\selectfont  $\leftarrow \joinrel  \rhook $}}{}{}K\discretionary {\unhbox \voidb@x \hbox {\relax \fontsize  {7}{8}\selectfont  $\leftarrow \joinrel  \rhook $}}{}{}K\discretionary {\unhbox \voidb@x \hbox {\relax \fontsize  {7}{8}\selectfont  $\leftarrow \joinrel  \rhook $}}{}{}T.\discretionary {\unhbox \voidb@x \hbox {\relax \fontsize  {7}{8}\selectfont  $\leftarrow \joinrel  \rhook $}}{}{}cpp File Reference}{16}{section.4.3}}
\newlabel{minDist2segments__KKT_8cpp}{{4.3}{16}{min\+Dist2segments\+\_\+\+K\+K\+T.\+cpp File Reference}{section.4.3}{}}
\@writefile{toc}{\contentsline {subsection}{\numberline {4.3.1}Detailed Description}{17}{subsection.4.3.1}}
\@writefile{toc}{\contentsline {subsection}{\numberline {4.3.2}Function Documentation}{18}{subsection.4.3.2}}
\newlabel{minDist2segments__KKT_8cpp_a3c04138a5bfe5d72780bb7e82a18e627}{{4.3.2}{18}{Function Documentation}{subsection.4.3.2}{}}
\@writefile{toc}{\contentsline {subsubsection}{\numberline {4.3.2.1}main()}{18}{subsubsection.4.3.2.1}}
\newlabel{minDist2segments__KKT_8cpp_aeccfea9307651b8347e3fba10356c189}{{4.3.2.1}{18}{\texorpdfstring {main()}{main()}}{subsubsection.4.3.2.1}{}}
\@writefile{toc}{\contentsline {subsubsection}{\numberline {4.3.2.2}points()}{19}{subsubsection.4.3.2.2}}
\@writefile{toc}{\contentsline {subsection}{\numberline {4.3.3}Variable Documentation}{19}{subsection.4.3.3}}
\newlabel{minDist2segments__KKT_8cpp_aab6c7b2935ec42825884fa6898e0089d}{{4.3.3}{19}{Variable Documentation}{subsection.4.3.3}{}}
\@writefile{toc}{\contentsline {subsubsection}{\numberline {4.3.3.1}A0}{19}{subsubsection.4.3.3.1}}
\newlabel{minDist2segments__KKT_8cpp_a47b92c1f039d5cd90b09331181b4559d}{{4.3.3.1}{19}{\texorpdfstring {A0}{A0}}{subsubsection.4.3.3.1}{}}
\@writefile{toc}{\contentsline {subsubsection}{\numberline {4.3.3.2}A1}{19}{subsubsection.4.3.3.2}}
\newlabel{minDist2segments__KKT_8cpp_a030a92b90266678e6faf618dac6f605b}{{4.3.3.2}{19}{\texorpdfstring {A1}{A1}}{subsubsection.4.3.3.2}{}}
\@writefile{toc}{\contentsline {subsubsection}{\numberline {4.3.3.3}arg\discretionary {\unhbox \voidb@x \hbox {\relax \fontsize  {7}{8}\selectfont  $\leftarrow \joinrel  \rhook $}}{}{}\_\discretionary {\unhbox \voidb@x \hbox {\relax \fontsize  {7}{8}\selectfont  $\leftarrow \joinrel  \rhook $}}{}{}i}{19}{subsubsection.4.3.3.3}}
\newlabel{minDist2segments__KKT_8cpp_a844f792bfd40fb5d617e4f0e551eee7b}{{4.3.3.3}{19}{\texorpdfstring {arg\+\_\+i}{arg\_i}}{subsubsection.4.3.3.3}{}}
\@writefile{toc}{\contentsline {subsubsection}{\numberline {4.3.3.4}B0}{19}{subsubsection.4.3.3.4}}
\newlabel{minDist2segments__KKT_8cpp_aaaed27f6cd36fd660a4c33225cc5a847}{{4.3.3.4}{19}{\texorpdfstring {B0}{B0}}{subsubsection.4.3.3.4}{}}
\@writefile{toc}{\contentsline {subsubsection}{\numberline {4.3.3.5}B1}{19}{subsubsection.4.3.3.5}}
\newlabel{minDist2segments__KKT_8cpp_add0c71391540bb0eb2376cf211ff685f}{{4.3.3.5}{19}{\texorpdfstring {B1}{B1}}{subsubsection.4.3.3.5}{}}
\@writefile{toc}{\contentsline {subsubsection}{\numberline {4.3.3.6}enumeration}{19}{subsubsection.4.3.3.6}}
\newlabel{minDist2segments__KKT_8cpp_a3b058354f6f0acc81c683e230476c99e}{{4.3.3.6}{19}{\texorpdfstring {enumeration}{enumeration}}{subsubsection.4.3.3.6}{}}
\@writefile{toc}{\contentsline {subsubsection}{\numberline {4.3.3.7}n\discretionary {\unhbox \voidb@x \hbox {\relax \fontsize  {7}{8}\selectfont  $\leftarrow \joinrel  \rhook $}}{}{}\_\discretionary {\unhbox \voidb@x \hbox {\relax \fontsize  {7}{8}\selectfont  $\leftarrow \joinrel  \rhook $}}{}{}args}{20}{subsubsection.4.3.3.7}}
\newlabel{minDist2segments__KKT_8cpp_ad37e1b7740e725cb44517fce48e5e3ab}{{4.3.3.7}{20}{\texorpdfstring {n\+\_\+args}{n\_args}}{subsubsection.4.3.3.7}{}}
\@writefile{toc}{\contentsline {subsubsection}{\numberline {4.3.3.8}Pi}{20}{subsubsection.4.3.3.8}}
\newlabel{minDist2segments__KKT_8cpp_a228eb5e837a644887ac6e7bab3f42485}{{4.3.3.8}{20}{\texorpdfstring {Pi}{Pi}}{subsubsection.4.3.3.8}{}}
\@writefile{toc}{\contentsline {subsubsection}{\numberline {4.3.3.9}R}{20}{subsubsection.4.3.3.9}}
\newlabel{minDist2segments__KKT_8cpp_a1447ad288a0a73454510f5777bdc3ed1}{{4.3.3.9}{20}{\texorpdfstring {R}{R}}{subsubsection.4.3.3.9}{}}
\@writefile{toc}{\contentsline {subsubsection}{\numberline {4.3.3.10}seed}{20}{subsubsection.4.3.3.10}}
\newlabel{minDist2segments__KKT_8cpp_a733d73da386565a606aa1a575d33dc2f}{{4.3.3.10}{20}{\texorpdfstring {seed}{seed}}{subsubsection.4.3.3.10}{}}
\@writefile{toc}{\contentsline {subsubsection}{\numberline {4.3.3.11}unif1}{20}{subsubsection.4.3.3.11}}
\newlabel{minDist2segments__KKT_8cpp_a21f98eae9dcb909c135984ec3badb0a2}{{4.3.3.11}{20}{\texorpdfstring {unif1}{unif1}}{subsubsection.4.3.3.11}{}}
\@writefile{toc}{\contentsline {subsubsection}{\numberline {4.3.3.12}unif2}{20}{subsubsection.4.3.3.12}}
\@writefile{toc}{\contentsline {chapter}{Index}{21}{section*.13}}
